Algebraic Statistics • algstat
…
poly_solve(c("y = x^2", "y = 2 - x^2"), varorder = c("x", "y"))
# 2 solutions (x,y) found. (2 real, 0 complex)
#     (-1,1) (R)
#     ( 1,1) (R)

Variety normal distribution

options("mc.cores" = parallel::detectCores())

p <- mp("(x^2 + y^2 - 1)^3 - x^2 y^3")
(samps <- rvnorm(500, p, .025, "tibble", chains = 8))
# # A tibble: 4,000 x 8
#        x      y      num denom        ng  lp__ chain  iter
#    <dbl>  <dbl>    <dbl> <dbl>     <dbl> <dbl> <int> <int>
#  1 0.981  1.07   0.162   6.50   0.0249    2.27     1   251
#  2 0.979  1.06   0.137   6.29   0.0217    2.39     1   252
#  3 0.895 -0.197  0.00207 0.195  0.0106    2.68     1   253
#  4 1.10   0.222  0.00226 0.393  0.00575   2.74     1   254
#  5 1.13   0.216  0.0209  0.687  0.0304    2.03     1   255
#  6 1.11   0.205  0.0110  0.502  0.0218    2.39     1   256
#  7 0.757  1.17  -0.0928  4.10  -0.0226    2.36     1   257
#  8 0.765  1.19   0.0357  5.24   0.00681   2.73     1   258
#  9 0.742  1.20   0.00398 4.88   0.000815  2.77     1   259
# 10 1.08   0.842 -0.0151  4.02  -0.00376   2.76     1   260
# # … with 3,990 more rows
…
